animation{
  name = "walking",
  src_image = "enemies/enemies.png",
  frame_delay = 200,
  frame_to_loop_on = 0,
  directions = {
    { x = 128, y = 96, frame_width = 16, frame_height = 16, origin_x = 8, origin_y = 13, num_frames = 2, num_columns = 1 },
    { x = 128, y = 96, frame_width = 16, frame_height = 16, origin_x = 8, origin_y = 13, num_frames = 2, num_columns = 1 },
    { x = 128, y = 96, frame_width = 16, frame_height = 16, origin_x = 8, origin_y = 13, num_frames = 2, num_columns = 1 },
    { x = 128, y = 96, frame_width = 16, frame_height = 16, origin_x = 8, origin_y = 13, num_frames = 2, num_columns = 1 },
  },
}
animation{
  name = "hurt",
  src_image = "enemies/enemies.png",
  frame_delay = 50,
  frame_to_loop_on = 0,
  directions = {
    { x = 144, y = 96, frame_width = 16, frame_height = 16, origin_x = 8, origin_y = 13 },
    { x = 144, y = 96, frame_width = 16, frame_height = 16, origin_x = 8, origin_y = 13 },
    { x = 144, y = 96, frame_width = 16, frame_height = 16, origin_x = 8, origin_y = 13 },
    { x = 144, y = 96, frame_width = 16, frame_height = 16, origin_x = 8, origin_y = 13 },
  },
}
animation{
  name = "immobilized",
  src_image = "enemies/enemies.png",
  directions = {
    { x = 128, y = 112, frame_width = 16, frame_height = 16, origin_x = 8, origin_y = 13 },
    { x = 128, y = 112, frame_width = 16, frame_height = 16, origin_x = 8, origin_y = 13 },
    { x = 128, y = 112, frame_width = 16, frame_height = 16, origin_x = 8, origin_y = 13 },
    { x = 128, y = 112, frame_width = 16, frame_height = 16, origin_x = 8, origin_y = 13 },
  },
}
animation{
  name = "shaking",
  src_image = "enemies/enemies.png",
  frame_delay = 50,
  frame_to_loop_on = 0,
  directions = {
    { x = 128, y = 96, frame_width = 16, frame_height = 16, origin_x = 8, origin_y = 13, num_frames = 2, num_columns = 1 },
    { x = 128, y = 96, frame_width = 16, frame_height = 16, origin_x = 8, origin_y = 13, num_frames = 2, num_columns = 1 },
    { x = 128, y = 96, frame_width = 16, frame_height = 16, origin_x = 8, origin_y = 13, num_frames = 2, num_columns = 1 },
    { x = 128, y = 96, frame_width = 16, frame_height = 16, origin_x = 8, origin_y = 13, num_frames = 2, num_columns = 1 },
  },
}
